SUP: 142 SID: {1, 3, 4, 5, 10, 13, 17, 19, 20, 24, 27, 28, 29, 30, 34, 35, 36, 37, 38, 40, 43, 44, 49, 50, 51, 52, 54, 55, 56, 58, 59, 60, 61, 62, 63, 64, 65, 67, 73, 74, 75, 79, 80, 82, 83, 84, 85, 87, 88, 89, 92, 93, 94, 96, 100, 101, 102, 104, 106, 107, 110, 111, 114, 115, 117, 118, 120, 122, 123, 125, 126, 128, 129, 130, 133, 134, 135, 137, 138, 139, 140, 141, 142, 143, 144, 146, 149, 151, 152, 155, 157, 158, 159, 160, 161, 163, 164, 165, 167, 169, 171, 172, 177, 179, 180, 181, 183, 185, 187, 193, 195, 196, 197, 198, 201, 206, 207, 211, 212, 213, 215, 216, 218, 219, 221, 223, 225, 227, 229, 231, 236, 239, 242, 244, 245, 249, 251, 254, 255, 261, 262, 263}                                                                                                                                                      SEQ: [75]
SUP: 225 SID: {0, 1, 2, 3, 5, 6, 7, 8, 9, 10, 11, 12, 13, 14, 16, 17, 18, 19, 20, 21, 22, 23, 26, 27, 28, 29, 30, 31, 32, 33, 34, 35, 36, 37, 38, 39, 40, 41, 42, 44, 45, 46, 47, 49, 50, 51, 52, 53, 56, 57, 58, 59, 60, 61, 62, 63, 64, 66, 68, 69, 70, 71, 72, 73, 74, 75, 76, 78, 79, 80, 82, 83, 84, 85, 86, 87, 88, 89, 90, 91, 92, 93, 96, 97, 98, 99, 101, 102, 103, 104, 105, 106, 107, 108, 109, 110, 111, 112, 113, 116, 117, 118, 119, 120, 121, 123, 124, 125, 126, 127, 128, 129, 130, 131, 132, 133, 134, 135, 137, 138, 139, 140, 141, 142, 143, 144, 145, 146, 147, 148, 150, 151, 152, 153, 155, 157, 158, 159, 160, 162, 163, 164, 165, 166, 167, 168, 169, 171, 173, 175, 176, 178, 179, 182, 183, 184, 185, 186, 187, 188, 189, 190, 191, 192, 194, 195, 196, 197, 198, 200, 201, 202, 203, 204, 205, 207, 208, 209, 210, 211, 212, 213, 214, 215, 216, 217, 218, 219, 220, 221, 222, 223, 225, 226, 227, 228, 232, 233, 234, 236, 237, 239, 240, 241, 242, 244, 245, 246, 248, 249, 251, 252, 253, 254, 255, 256, 257, 258, 259, 261, 262, 263, 264, 265, 266} SEQ: [174]
SUP: 155 SID: {3, 4, 5, 10, 11, 12, 14, 15, 16, 17, 18, 20, 22, 26, 27, 28, 31, 32, 34, 36, 37, 38, 39, 40, 41, 42, 43, 46, 47, 50, 51, 52, 54, 55, 56, 58, 61, 62, 63, 65, 66, 67, 68, 69, 70, 71, 72, 73, 74, 79, 82, 83, 85, 86, 91, 93, 94, 95, 97, 98, 99, 101, 102, 104, 105, 106, 107, 109, 112, 115, 116, 119, 121, 123, 124, 125, 126, 129, 134, 136, 138, 142, 144, 145, 146, 150, 151, 153, 155, 158, 159, 162, 163, 164, 168, 169, 170, 172, 173, 176, 181, 182, 183, 184, 185, 190, 191, 196, 198, 200, 201, 202, 203, 211, 212, 213, 214, 215, 216, 220, 221, 222, 223, 225, 229, 230, 232, 233, 234, 235, 236, 237, 238, 239, 240, 241, 243, 244, 245, 246, 248, 249, 251, 253, 254, 255, 256, 257, 258, 260, 261, 262, 263, 264, 265}                                                                                           SEQ: [191]
SUP: 155 SID: {3, 4, 5, 10, 11, 12, 14, 15, 16, 17, 18, 20, 22, 26, 27, 28, 31, 32, 34, 36, 37, 38, 39, 40, 41, 42, 43, 46, 47, 50, 51, 52, 54, 55, 56, 58, 61, 62, 63, 65, 66, 67, 68, 69, 70, 71, 72, 73, 74, 79, 82, 83, 85, 86, 91, 93, 94, 95, 97, 98, 99, 101, 102, 104, 105, 106, 107, 109, 112, 115, 116, 119, 121, 123, 124, 125, 126, 129, 134, 136, 138, 142, 144, 145, 146, 150, 151, 153, 155, 158, 159, 162, 163, 164, 168, 169, 170, 172, 173, 176, 181, 182, 183, 184, 185, 190, 191, 196, 198, 200, 201, 202, 203, 211, 212, 213, 214, 215, 216, 220, 221, 222, 223, 225, 229, 230, 232, 233, 234, 235, 236, 237, 238, 239, 240, 241, 243, 244, 245, 246, 248, 249, 251, 253, 254, 255, 256, 257, 258, 260, 261, 262, 263, 264, 265}                                                                                           SEQ: [192]
SUP: 164 SID: {2, 4, 6, 11, 13, 14, 17, 19, 20, 24, 27, 28, 29, 30, 32, 34, 35, 36, 37, 38, 40, 41, 42, 43, 45, 46, 47, 49, 50, 51, 52, 53, 54, 55, 56, 58, 59, 60, 62, 66, 67, 69, 72, 73, 74, 75, 78, 80, 82, 83, 85, 91, 92, 94, 95, 96, 99, 100, 101, 102, 103, 104, 105, 106, 107, 110, 111, 114, 115, 116, 117, 119, 120, 122, 123, 124, 125, 126, 127, 129, 131, 132, 133, 134, 136, 137, 138, 140, 141, 142, 144, 151, 152, 153, 155, 156, 157, 158, 159, 160, 161, 163, 164, 165, 169, 171, 172, 174, 176, 177, 180, 181, 183, 185, 186, 192, 193, 195, 196, 198, 199, 202, 203, 207, 208, 210, 211, 212, 213, 214, 215, 218, 219, 220, 221, 223, 225, 227, 228, 231, 232, 233, 236, 238, 239, 240, 242, 243, 244, 245, 247, 249, 250, 251, 252, 253, 254, 255, 256, 258, 260, 261, 262, 263}                                          SEQ: [205]
SUP: 158 SID: {0, 1, 2, 4, 5, 9, 10, 12, 13, 14, 18, 19, 20, 21, 22, 23, 24, 27, 28, 29, 30, 32, 33, 36, 40, 42, 43, 44, 47, 50, 51, 55, 56, 58, 59, 60, 61, 62, 64, 65, 66, 68, 69, 70, 71, 72, 73, 76, 79, 80, 84, 89, 90, 94, 96, 97, 98, 99, 100, 105, 106, 108, 109, 112, 115, 117, 118, 120, 121, 123, 124, 126, 127, 130, 131, 134, 135, 136, 137, 138, 142, 143, 144, 145, 149, 150, 151, 152, 153, 156, 157, 158, 159, 160, 161, 162, 163, 164, 165, 167, 168, 169, 170, 171, 172, 173, 174, 176, 177, 178, 180, 182, 188, 190, 191, 192, 193, 194, 196, 197, 198, 199, 201, 204, 207, 209, 210, 215, 218, 221, 223, 224, 225, 226, 227, 232, 234, 237, 241, 242, 243, 244, 245, 246, 247, 251, 252, 253, 254, 255, 256, 257, 258, 260, 261, 262, 263, 265}                                                                            SEQ: [250]
SUP: 199 SID: {0, 2, 3, 4, 6, 10, 11, 12, 13, 14, 15, 16, 17, 18, 19, 21, 22, 23, 24, 26, 27, 29, 32, 33, 35, 36, 37, 39, 40, 41, 42, 43, 44, 45, 46, 47, 48, 49, 50, 51, 52, 53, 54, 55, 56, 57, 58, 59, 60, 61, 62, 63, 64, 66, 68, 69, 70, 71, 72, 73, 74, 75, 76, 79, 82, 83, 85, 86, 87, 88, 89, 91, 93, 94, 95, 97, 98, 101, 102, 103, 105, 107, 108, 110, 113, 115, 119, 120, 122, 123, 126, 127, 128, 130, 131, 132, 133, 134, 135, 136, 137, 138, 141, 143, 144, 146, 147, 148, 152, 153, 155, 156, 157, 158, 159, 160, 161, 162, 163, 164, 165, 166, 167, 168, 170, 171, 172, 173, 174, 175, 179, 181, 182, 183, 184, 185, 186, 187, 188, 189, 190, 191, 193, 194, 195, 196, 197, 198, 201, 204, 205, 206, 207, 209, 210, 211, 212, 213, 214, 215, 216, 218, 219, 220, 221, 222, 223, 224, 226, 227, 228, 229, 230, 232, 233, 235, 237, 238, 239, 240, 242, 244, 245, 246, 247, 248, 249, 251, 252, 254, 256, 258, 259, 261, 262, 263, 264, 265, 266} SEQ: [253]
SUP: 135 SID: {3, 5, 10, 11, 12, 14, 16, 17, 18, 20, 22, 26, 27, 28, 31, 32, 34, 36, 37, 38, 39, 40, 41, 42, 46, 47, 50, 51, 52, 56, 58, 61, 62, 63, 66, 68, 69, 70, 71, 72, 73, 74, 79, 82, 83, 85, 86, 91, 93, 97, 98, 99, 101, 102, 104, 105, 106, 107, 109, 112, 116, 119, 121, 123, 124, 125, 126, 129, 134, 138, 142, 144, 145, 146, 150, 151, 153, 155, 158, 159, 162, 163, 164, 168, 169, 173, 176, 182, 183, 184, 185, 190, 191, 196, 198, 200, 201, 202, 203, 211, 212, 213, 214, 215, 216, 220, 221, 222, 223, 225, 232, 233, 234, 236, 237, 239, 240, 241, 244, 245, 246, 248, 249, 251, 253, 254, 255, 256, 257, 258, 261, 262, 263, 264, 265}                                                                                                                                                                                     SEQ: [174]; [191]
SUP: 135 SID: {3, 5, 10, 11, 12, 14, 16, 17, 18, 20, 22, 26, 27, 28, 31, 32, 34, 36, 37, 38, 39, 40, 41, 42, 46, 47, 50, 51, 52, 56, 58, 61, 62, 63, 66, 68, 69, 70, 71, 72, 73, 74, 79, 82, 83, 85, 86, 91, 93, 97, 98, 99, 101, 102, 104, 105, 106, 107, 109, 112, 116, 119, 121, 123, 124, 125, 126, 129, 134, 138, 142, 144, 145, 146, 150, 151, 153, 155, 158, 159, 162, 163, 164, 168, 169, 173, 176, 182, 183, 184, 185, 190, 191, 196, 198, 200, 201, 202, 203, 211, 212, 213, 214, 215, 216, 220, 221, 222, 223, 225, 232, 233, 234, 236, 237, 239, 240, 241, 244, 245, 246, 248, 249, 251, 253, 254, 255, 256, 257, 258, 261, 262, 263, 264, 265}                                                                                                                                                                                     SEQ: [174]; [191]; [192]
SUP: 135 SID: {3, 5, 10, 11, 12, 14, 16, 17, 18, 20, 22, 26, 27, 28, 31, 32, 34, 36, 37, 38, 39, 40, 41, 42, 46, 47, 50, 51, 52, 56, 58, 61, 62, 63, 66, 68, 69, 70, 71, 72, 73, 74, 79, 82, 83, 85, 86, 91, 93, 97, 98, 99, 101, 102, 104, 105, 106, 107, 109, 112, 116, 119, 121, 123, 124, 125, 126, 129, 134, 138, 142, 144, 145, 146, 150, 151, 153, 155, 158, 159, 162, 163, 164, 168, 169, 173, 176, 182, 183, 184, 185, 190, 191, 196, 198, 200, 201, 202, 203, 211, 212, 213, 214, 215, 216, 220, 221, 222, 223, 225, 232, 233, 234, 236, 237, 239, 240, 241, 244, 245, 246, 248, 249, 251, 253, 254, 255, 256, 257, 258, 261, 262, 263, 264, 265}                                                                                                                                                                                     SEQ: [174]; [192]
SUP: 136 SID: {2, 6, 11, 13, 14, 17, 19, 20, 27, 28, 29, 30, 32, 34, 35, 36, 37, 38, 40, 41, 42, 45, 46, 47, 49, 50, 51, 52, 53, 56, 58, 59, 60, 62, 66, 69, 72, 73, 74, 75, 78, 80, 82, 83, 85, 91, 92, 96, 99, 101, 102, 103, 104, 105, 106, 107, 110, 111, 116, 117, 119, 120, 123, 124, 125, 126, 127, 129, 131, 132, 133, 134, 137, 138, 140, 141, 142, 144, 151, 152, 153, 155, 157, 158, 159, 160, 163, 164, 165, 169, 171, 176, 183, 185, 186, 192, 195, 196, 198, 202, 203, 207, 208, 210, 211, 212, 213, 214, 215, 218, 219, 220, 221, 223, 225, 227, 228, 232, 233, 236, 239, 240, 242, 244, 245, 249, 251, 252, 253, 254, 255, 256, 258, 261, 262, 263}                                                                                                                                                                             SEQ: [174]; [205]
SUP: 135 SID: {0, 1, 2, 5, 9, 10, 12, 13, 14, 18, 19, 20, 21, 22, 23, 27, 28, 29, 30, 32, 33, 36, 40, 42, 44, 47, 50, 51, 56, 58, 59, 60, 61, 62, 64, 66, 68, 69, 70, 71, 72, 73, 76, 79, 80, 84, 89, 90, 96, 97, 98, 99, 105, 106, 108, 109, 112, 117, 118, 120, 121, 123, 124, 126, 127, 130, 131, 134, 135, 137, 138, 142, 143, 144, 145, 150, 151, 152, 153, 157, 158, 159, 160, 162, 163, 164, 165, 167, 168, 169, 171, 173, 176, 178, 182, 188, 190, 191, 192, 194, 196, 197, 198, 201, 204, 207, 209, 210, 215, 218, 221, 223, 225, 226, 227, 232, 234, 237, 241, 242, 244, 245, 246, 251, 252, 253, 254, 255, 256, 257, 258, 261, 262, 263, 265}                                                                                                                                                                                        SEQ: [174]; [250]
SUP: 173 SID: {0, 2, 3, 6, 10, 11, 12, 13, 14, 16, 17, 18, 19, 21, 22, 23, 26, 27, 29, 32, 33, 35, 36, 37, 39, 40, 41, 42, 44, 45, 46, 47, 49, 50, 51, 52, 53, 56, 57, 58, 59, 60, 61, 62, 63, 64, 66, 68, 69, 70, 71, 72, 73, 74, 75, 76, 79, 82, 83, 85, 86, 87, 88, 89, 91, 93, 97, 98, 101, 102, 103, 105, 107, 108, 110, 113, 119, 120, 123, 126, 127, 128, 130, 131, 132, 133, 134, 135, 137, 138, 141, 143, 144, 146, 147, 148, 152, 153, 155, 157, 158, 159, 160, 162, 163, 164, 165, 166, 167, 168, 171, 173, 175, 179, 182, 183, 184, 185, 186, 187, 188, 189, 190, 191, 194, 195, 196, 197, 198, 201, 204, 205, 207, 209, 210, 211, 212, 213, 214, 215, 216, 218, 219, 220, 221, 222, 223, 226, 227, 228, 232, 233, 237, 239, 240, 242, 244, 245, 246, 248, 249, 251, 252, 254, 256, 258, 259, 261, 262, 263, 264, 265, 266}         SEQ: [174]; [253]
SUP: 155 SID: {3, 4, 5, 10, 11, 12, 14, 15, 16, 17, 18, 20, 22, 26, 27, 28, 31, 32, 34, 36, 37, 38, 39, 40, 41, 42, 43, 46, 47, 50, 51, 52, 54, 55, 56, 58, 61, 62, 63, 65, 66, 67, 68, 69, 70, 71, 72, 73, 74, 79, 82, 83, 85, 86, 91, 93, 94, 95, 97, 98, 99, 101, 102, 104, 105, 106, 107, 109, 112, 115, 116, 119, 121, 123, 124, 125, 126, 129, 134, 136, 138, 142, 144, 145, 146, 150, 151, 153, 155, 158, 159, 162, 163, 164, 168, 169, 170, 172, 173, 176, 181, 182, 183, 184, 185, 190, 191, 196, 198, 200, 201, 202, 203, 211, 212, 213, 214, 215, 216, 220, 221, 222, 223, 225, 229, 230, 232, 233, 234, 235, 236, 237, 238, 239, 240, 241, 243, 244, 245, 246, 248, 249, 251, 253, 254, 255, 256, 257, 258, 260, 261, 262, 263, 264, 265}                                                                                           SEQ: [191]; [192]
